<svg width="31" height="30" viewBox="0 0 31 30" fill="none" xmlns="http://www.w3.org/2000/svg">
<path fill-rule="evenodd" clip-rule="evenodd" d="M15.422 30C23.7149 30 30.4376 23.2843 30.4376 15C30.4376 6.71573 23.7149 0 15.422 0C7.12907 0 0.406342 6.71573 0.406342 15C0.406342 23.2843 7.12907 30 15.422 30ZM18.9632 11.9287C19.1935 11.9287 19.4199 11.9462 19.6477 11.9712C19.0345 9.11872 15.9826 6.99997 12.4978 6.99997C8.60249 6.99997 5.41168 9.65122 5.41168 13.02C5.41168 14.9637 6.47278 16.56 8.24712 17.8L7.53889 19.9287L10.0165 18.6887C10.1606 18.717 10.3001 18.7454 10.4365 18.7732L10.4369 18.7733L10.4371 18.7733L10.4372 18.7734L10.4373 18.7734C11.1387 18.9164 11.7573 19.0425 12.4978 19.0425C12.7205 19.0425 12.9407 19.0325 13.1585 19.0162C13.0208 18.5425 12.9395 18.0475 12.9395 17.5312C12.9407 14.4387 15.5985 11.9287 18.9632 11.9287ZM15.1542 10.0099C15.6898 10.0099 16.0414 10.3611 16.0414 10.8936C16.0414 11.4236 15.6898 11.7786 15.1542 11.7786C14.6248 11.7786 14.0918 11.4236 14.0918 10.8936C14.0918 10.3599 14.6236 10.0099 15.1542 10.0099ZM9.12793 10.8936C9.12793 11.4236 9.66349 11.7786 10.1953 11.7786C10.7271 11.7786 11.08 11.4236 11.08 10.8936C11.08 10.3599 10.7271 10.0099 10.1953 10.0099C9.66349 10.0099 9.12793 10.3611 9.12793 10.8936ZM25.4324 17.4462C25.4324 14.6162 22.597 12.3099 19.4124 12.3099C16.0402 12.3099 13.3862 14.6174 13.3862 17.4462C13.3862 20.2837 16.0414 22.5824 19.4124 22.5824C20.1182 22.5824 20.8301 22.4062 21.5384 22.2287L23.4816 23.2937L22.9486 21.5237C24.3713 20.4562 25.4324 19.0424 25.4324 17.4462ZM16.7497 15.8524C16.7497 16.2099 17.1063 16.5599 17.4579 16.5599C17.9959 16.5599 18.345 16.2099 18.345 15.8524C18.345 15.4999 17.9959 15.1449 17.4579 15.1449C17.1063 15.1449 16.7497 15.4999 16.7497 15.8524ZM21.3556 16.5599C21.0065 16.5599 20.6511 16.2099 20.6511 15.8524C20.6511 15.4999 21.0052 15.1449 21.3556 15.1449C21.8887 15.1449 22.2429 15.4999 22.2429 15.8524C22.2429 16.2099 21.8887 16.5599 21.3556 16.5599Z" fill="#A58965"/>
</svg>
